…
1.  There are 134 aisles in the data set. Fresh vegetables aisle are the
    most items order from.

``` r
instacart %>% 
  janitor::clean_names() %>% 
  group_by(aisle_id) %>% 
  summarize(n_obs = n())
```

    ## # A tibble: 134 × 2
    ##    aisle_id n_obs
    ##       <int> <int>
    ##  1        1  2936
    ##  2        2  3873
    ##  3        3 17449
    ##  4        4  9917
    ##  5        5  2905
    ##  6        6  1795
    ##  7        7  1526
    ##  8        8  1501
    ##  9        9  9736
    ## 10       10   448
    ## # … with 124 more rows
…
.

## Problem 2

``` r
brfss_smart2010 %>% 
  janitor::clean_names() %>%  
  filter(topic =="Overall Health") %>%  
  select(topic,response) %>% 
  mutate(response = forcats::fct_relevel (response, "Poor", "Fair","Good","Very good","Excellent")) %>% 
  arrange(response)
```

    ## # A tibble: 10,625 × 2
    ##    topic          response
    ##    <chr>          <fct>   
    ##  1 Overall Health Poor    
    ##  2 Overall Health Poor    
    ##  3 Overall Health Poor    
    ##  4 Overall Health Poor    
    ##  5 Overall Health Poor    
    ##  6 Overall Health Poor    
    ##  7 Overall Health Poor    
    ##  8 Overall Health Poor    
    ##  9 Overall Health Poor    
    ## 10 Overall Health Poor    
    ## # … with 10,615 more rows

``` r
brfss_smart2010 %>% 
  janitor::clean_names() %>% 
  select(year,locationabbr,locationdesc) %>% 
  filter(year == c(2002,2010)) %>% 
  group_by(year,locationabbr)
```

    ## # A tibble: 14,106 × 3
    ## # Groups:   year, locationabbr [98]
    ##     year locationabbr locationdesc         
    ##    <int> <chr>        <chr>                
    ##  1  2010 AL           AL - Jefferson County
    ##  2  2010 AL           AL - Jefferson County
    ##  3  2010 AL           AL - Jefferson County
    ##  4  2010 AL           AL - Jefferson County
    ##  5  2010 AL           AL - Jefferson County
    ##  6  2010 AL           AL - Jefferson County
    ##  7  2010 AL           AL - Jefferson County
    ##  8  2010 AL           AL - Jefferson County
    ##  9  2010 AL           AL - Jefferson County
    ## 10  2010 AL           AL - Jefferson County
    ## # … with 14,096 more rows
